[gd_scene load_steps=4 format=2]

[ext_resource path="res://scripts/AStar.gd" type="Script" id=1]
[ext_resource path="res://bin/gdastar.gdns" type="Script" id=2]
[ext_resource path="res://scripts/Path_Manager.gd" type="Script" id=3]

[node name="AStar" type="Node"]
script = ExtResource( 1 )

[node name="Node_Grid" type="Spatial" parent="."]

[node name="Core" type="Node" parent="."]
script = ExtResource( 2 )

[node name="Path_Manager" type="Node" parent="."]
script = ExtResource( 3 )
